Nombres Inscritos en Chile (1920 - 2019) • guaguas
…
El efecto “Romané” en el año 2000

Según IMDB, Romané ha sido una de las teleseries más vistas en Chile. Emitida el año 2000, el nombre de su protagonista reaparece en la lista de inscritas con más de 15 ocurrencias ese año.

guaguas %>% 
  filter(str_detect(nombre, "(Y|J)ovanka"))
#> # A tibble: 107 x 5
#>     anio nombre  sexo      n proporcion
#>    <dbl> <chr>   <chr> <dbl>      <dbl>
#>  1  1937 Jovanka F         1 0.0000103 
#>  2  1958 Jovanka F         1 0.00000397
#>  3  1962 Jovanka F         5 0.0000177 
#>  4  1962 Yovanka F         3 0.0000106 
#>  5  1963 Jovanka F        17 0.0000595 
#>  6  1963 Yovanka F         5 0.0000175 
#>  7  1964 Yovanka F         9 0.0000310 
#>  8  1964 Jovanka F         7 0.0000241 
#>  9  1965 Yovanka F         5 0.0000157 
#> 10  1965 Jovanka F         4 0.0000125 
#> # … with 97 more rows
…
